…
Introduction

In this worksheet, we will discuss how to display distributions of
data values using histograms and density plots.

The first dataset we will be working with contains information about
passengers on the Titanic, including their age, sex, the class in which
they traveled on the ship, and whether they survived or not:

```{r titanic}
titanic
```

# A tibble: 756 × 4
     age sex    class survived
   <dbl> <chr>  <chr> <chr>   
 1  0.17 female 3rd   survived
 2  0.33 male   3rd   died    
 3  0.8  male   2nd   survived
 4  0.83 male   2nd   survived
 5  0.83 male   3rd   survived
 6  0.92 male   1st   survived
 7  1    female 2nd   survived
 8  1    female 3rd   survived
 9  1    male   2nd   survived
10  1    male   2nd   survived
# … with 746 more rows
…
Multiple distributions at once

Now, let’s display many distributions at once, using boxplots, violin
plots, strip charts, sina plots, and ridgeline plots.

The next dataset we will be working with contains information about
the mean temperature for every day of the year 2016 in Lincoln, NE:

```{r lincoln_temps}
lincoln_temps
```

# A tibble: 366 × 4
   date       month month_long mean_temp
   <date>     <fct> <fct>          <int>
 1 2016-01-01 Jan   January           24
 2 2016-01-02 Jan   January           23
 3 2016-01-03 Jan   January           23
 4 2016-01-04 Jan   January           17
 5 2016-01-05 Jan   January           29
 6 2016-01-06 Jan   January           33
 7 2016-01-07 Jan   January           30
 8 2016-01-08 Jan   January           25
 9 2016-01-09 Jan   January            9
10 2016-01-10 Jan   January           11
# … with 356 more rows
…
