…
temps_houston <- filter(temperatures, location == "Houston")
```

The dataset we will be working with contains the average temperature
for each day of the year for Houston, TX:

Whenever you see a code chunk, copy it into your document, and if
there are blanks try filling them in to complete the prompt. You can
also copy the prose between code chunks, or add your own notes.

```{r}
temps_houston
```

# A tibble: 366 × 4
   location day_of_year month temperature
   <fct>          <dbl> <chr>       <dbl>
 1 Houston            1 01           53.9
 2 Houston            2 01           53.8
 3 Houston            3 01           53.8
 4 Houston            4 01           53.8
 5 Houston            5 01           53.8
 6 Houston            6 01           53.7
 7 Houston            7 01           53.7
 8 Houston            8 01           53.7
 9 Houston            9 01           53.7
10 Houston           10 01           53.7
# … with 356 more rows
…
Adding color

Next we will be working with the dataset temperatures,
which is similar to temps_houston but contains data for
three more locations:

```{r temperatures}
temperatures
```

# A tibble: 1,464 × 4
   location     day_of_year month temperature
   <fct>              <dbl> <chr>       <dbl>
 1 Death Valley           1 01           51  
 2 Death Valley           2 01           51.2
 3 Death Valley           3 01           51.3
 4 Death Valley           4 01           51.4
 5 Death Valley           5 01           51.6
 6 Death Valley           6 01           51.7
 7 Death Valley           7 01           51.9
 8 Death Valley           8 01           52  
 9 Death Valley           9 01           52.2
10 Death Valley          10 01           52.3
# … with 1,454 more rows
…
