…
```{r library-calls}
# load required libraries
library(tidyverse)
library(palmerpenguins)
```

We will be working with the dataset penguins containing
data on individual penguins on Antarctica.

```{r}
penguins
```

# A tibble: 344 × 8
   species island    bill_length_mm bill_depth_mm flipper_…¹ body_…² sex    year
   <fct>   <fct>              <dbl>         <dbl>      <int>   <int> <fct> <int>
 1 Adelie  Torgersen           39.1          18.7        181    3750 male   2007
 2 Adelie  Torgersen           39.5          17.4        186    3800 fema…  2007
 3 Adelie  Torgersen           40.3          18          195    3250 fema…  2007
 4 Adelie  Torgersen           NA            NA           NA      NA <NA>   2007
 5 Adelie  Torgersen           36.7          19.3        193    3450 fema…  2007
 6 Adelie  Torgersen           39.3          20.6        190    3650 male   2007
 7 Adelie  Torgersen           38.9          17.8        181    3625 fema…  2007
 8 Adelie  Torgersen           39.2          19.6        195    4675 male   2007
 9 Adelie  Torgersen           34.1          18.1        193    3475 <NA>   2007
10 Adelie  Torgersen           42            20.2        190    4250 <NA>   2007
# … with 334 more rows, and abbreviated variable names ¹​flipper_length_mm,
#   ²​body_mass_g
…
The function filter() allows you to find rows in a
dataset that meet one or more specific conditions. The syntax is
data %>% filter(condition), where condition is a logical
condition. For example, filter(x > 5) would pick all
rows for which the value in column x is greater than 5.

As an example, the following code picks all penguins from the island
Biscoe:

```{r filter-island-demo, echo=TRUE}
penguins %>%
  filter(island == "Biscoe")
```

# A tibble: 168 × 8
   species island bill_length_mm bill_depth_mm flipper_len…¹ body_…² sex    year
   <fct>   <fct>           <dbl>         <dbl>         <int>   <int> <fct> <int>
 1 Adelie  Biscoe           37.8          18.3           174    3400 fema…  2007
 2 Adelie  Biscoe           37.7          18.7           180    3600 male   2007
 3 Adelie  Biscoe           35.9          19.2           189    3800 fema…  2007
 4 Adelie  Biscoe           38.2          18.1           185    3950 male   2007
 5 Adelie  Biscoe           38.8          17.2           180    3800 male   2007
 6 Adelie  Biscoe           35.3          18.9           187    3800 fema…  2007
 7 Adelie  Biscoe           40.6          18.6           183    3550 male   2007
 8 Adelie  Biscoe           40.5          17.9           187    3200 fema…  2007
 9 Adelie  Biscoe           37.9          18.6           172    3150 fema…  2007
10 Adelie  Biscoe           40.5          18.9           180    3950 male   2007
# … with 158 more rows, and abbreviated variable names ¹​flipper_length_mm,
#   ²​body_mass_g
…
Choosing data columns

The function select() allows you to pick specific data
columns by name. This is frequently useful when a dataset has many more
columns than we are interested in at the time. For example, if we are
only interested in the penguins’ species, island, and sex, we could
select these three columns:

```{r select-example}
penguins %>%
  select(species, island, sex)
```

# A tibble: 344 × 3
   species island    sex   
   <fct>   <fct>     <fct> 
 1 Adelie  Torgersen male  
 2 Adelie  Torgersen female
 3 Adelie  Torgersen female
 4 Adelie  Torgersen <NA>  
 5 Adelie  Torgersen female
 6 Adelie  Torgersen male  
 7 Adelie  Torgersen female
 8 Adelie  Torgersen male  
 9 Adelie  Torgersen <NA>  
10 Adelie  Torgersen <NA>  
# … with 334 more rows
…
As an example, the following code sorts penguins by their flipper
length:

```{r arrange-flipper-demo}
penguins %>%
  arrange(flipper_length_mm)
```

# A tibble: 344 × 8
   species   island    bill_length_mm bill_depth_mm flippe…¹ body_…² sex    year
   <fct>     <fct>              <dbl>         <dbl>    <int>   <int> <fct> <int>
 1 Adelie    Biscoe              37.9          18.6      172    3150 fema…  2007
 2 Adelie    Biscoe              37.8          18.3      174    3400 fema…  2007
 3 Adelie    Torgersen           40.2          17        176    3450 fema…  2009
 4 Adelie    Dream               39.5          16.7      178    3250 fema…  2007
 5 Adelie    Dream               37.2          18.1      178    3900 male   2007
 6 Adelie    Dream               33.1          16.1      178    2900 fema…  2008
 7 Chinstrap Dream               46.1          18.2      178    3250 fema…  2007
 8 Adelie    Dream               37.5          18.9      179    2975 <NA>   2007
 9 Adelie    Torgersen           37.8          17.3      180    3700 <NA>   2007
10 Adelie    Biscoe              37.7          18.7      180    3600 male   2007
# … with 334 more rows, and abbreviated variable names ¹​flipper_length_mm,
#   ²​body_mass_g
…
